(footprint "battery_26650_1xC"
	(version 20240108)
	(generator "pcbnew")
	(generator_version "8.0")
	(layer "F.Cu")
	(descr "Battery Holder")
	(tags "battery 26650")
	(property "Reference" "REF**"
		(at 0 -18.1 0)
		(layer "F.SilkS")
		(uuid "563c12e4-8f8c-446c-a11f-94f5aa93b994")
		(effects
			(font
				(size 1 1)
				(thickness 0.15)
			)
		)
	)
	(property "Value" "battery_26650"
		(at 0 1 0)
		(layer "F.Fab")
		(uuid "3451168c-3c76-4628-aee4-7c231bd100c3")
		(effects
			(font
				(size 1 1)
				(thickness 0.15)
			)
		)
	)
	(property "Footprint" ""
		(at 0 0 0)
		(unlocked yes)
		(layer "F.Fab")
		(hide yes)
		(uuid "4e97fb33-da5b-439a-9fd7-4e5d8ecba134")
		(effects
			(font
				(size 1.27 1.27)
			)
		)
	)
	(property "Datasheet" ""
		(at 0 0 0)
		(unlocked yes)
		(layer "F.Fab")
		(hide yes)
		(uuid "b94495da-d0d9-494d-886e-13bf2c6d455a")
		(effects
			(font
				(size 1.27 1.27)
			)
		)
	)
	(property "Description" ""
		(at 0 0 0)
		(unlocked yes)
		(layer "F.Fab")
		(hide yes)
		(uuid "c4fb439a-d4f0-48d7-93e4-a56810f60507")
		(effects
			(font
				(size 1.27 1.27)
			)
		)
	)
	(attr through_hole)
	(fp_line
		(start -42 -14)
		(end -42 14)
		(stroke
			(width 0.12)
			(type solid)
		)
		(layer "F.SilkS")
		(uuid "e6521bef-4109-48f7-8b88-4121b0468927")
	)
	(fp_line
		(start -42 -14)
		(end 42 -14)
		(stroke
			(width 0.12)
			(type solid)
		)
		(layer "F.SilkS")
		(uuid "99030c03-63b4-49ba-b5ab-4d56974f7963")
	)
	(fp_line
		(start -42 14)
		(end 42 14)
		(stroke
			(width 0.12)
			(type solid)
		)
		(layer "F.SilkS")
		(uuid "87c78429-be2b-40ed-8d3b-56cb9666a56f")
	)
	(fp_line
		(start 42 -14)
		(end 42 14)
		(stroke
			(width 0.12)
			(type solid)
		)
		(layer "F.SilkS")
		(uuid "646d9e91-59b4-4865-a2fc-29780ed32563")
	)
	(fp_line
		(start -42 14)
		(end -42 -14)
		(stroke
			(width 0.05)
			(type solid)
		)
		(layer "F.CrtYd")
		(uuid "3559e287-424e-4397-b080-77c7ba6f395b")
	)
	(fp_line
		(start -40 -14)
		(end 40 -14)
		(stroke
			(width 0.05)
			(type solid)
		)
		(layer "F.CrtYd")
		(uuid "d0dfd7c1-401d-4f64-8463-f4c0813ac28f")
	)
	(fp_line
		(start 40 14)
		(end -40 14)
		(stroke
			(width 0.05)
			(type solid)
		)
		(layer "F.CrtYd")
		(uuid "dd2f6b13-9e35-4a67-90ac-cf0d1ea34e5a")
	)
	(fp_line
		(start 42 -14)
		(end 42 14)
		(stroke
			(width 0.05)
			(type solid)
		)
		(layer "F.CrtYd")
		(uuid "23e66461-bcf2-4335-93c2-5c91dfd00187")
	)
	(fp_line
		(start -42 -14)
		(end 42 -14)
		(stroke
			(width 0.1)
			(type solid)
		)
		(layer "F.Fab")
		(uuid "16ded395-a862-4198-b3af-ba8c7fb298bb")
	)
	(fp_line
		(start -42 14)
		(end -42 -14)
		(stroke
			(width 0.1)
			(type solid)
		)
		(layer "F.Fab")
		(uuid "e1105432-6a2f-45d9-8a08-47401d087cf4")
	)
	(fp_line
		(start 42 -14)
		(end 42 14)
		(stroke
			(width 0.1)
			(type solid)
		)
		(layer "F.Fab")
		(uuid "975b065a-4fee-4d11-9f2f-b1d40a3629cb")
	)
	(fp_line
		(start 42 14)
		(end -42 14)
		(stroke
			(width 0.1)
			(type solid)
		)
		(layer "F.Fab")
		(uuid "851ab59d-1fd7-45c7-a775-29797327cafc")
	)
	(fp_text user "+"
		(at -36.068 0 0)
		(layer "F.SilkS")
		(uuid "3934cdea-42c8-4ab1-b1be-2c4978ab08ae")
		(effects
			(font
				(size 3 3)
				(thickness 0.45)
			)
		)
	)
	(fp_text user "${REFERENCE}"
		(at 0 -1 0)
		(layer "F.Fab")
		(uuid "edc9ab4f-487a-48dc-95f2-4d87f0e9cf9e")
		(effects
			(font
				(size 1 1)
				(thickness 0.1)
			)
		)
	)
	(pad "" np_thru_hole circle
		(at -27 0)
		(size 3.8 3.8)
		(drill 3.8)
		(layers "F&B.Cu" "*.Mask")
		(uuid "6ff874d0-4ac5-414c-83a7-573eda4c7703")
	)
	(pad "" np_thru_hole circle
		(at 27 0)
		(size 3.8 3.8)
		(drill 3.8)
		(layers "F&B.Cu" "*.Mask")
		(uuid "9538e4ed-27e6-4c37-b989-9859dc0d49e8")
	)
	(pad "1" thru_hole rect
		(at -39 0)
		(size 2.6 2.6)
		(drill 1.6)
		(layers "*.Cu" "*.Mask")
		(remove_unused_layers no)
		(uuid "e63e39d7-6ac0-4ffd-8aa3-1841a4541b55")
	)
	(pad "2" thru_hole circle
		(at 39 0)
		(size 2.6 2.6)
		(drill 1.6)
		(layers "*.Cu" "*.Mask")
		(remove_unused_layers no)
		(uuid "ca213826-0282-4b3a-840f-ec416dc34acf")
	)
	(model "${KICAD6_3DMODEL_DIR}/Battery.3dshapes/BatteryHolder_Bulgin_BX0036_1xC.wrl"
		(offset
			(xyz 0 0 0)
		)
		(scale
			(xyz 1 1 1)
		)
		(rotate
			(xyz 0 0 0)
		)
	)
)