(footprint "battery_14500_1xC"
	(version 20240108)
	(generator "pcbnew")
	(generator_version "8.0")
	(layer "F.Cu")
	(property "Reference" "REF**"
		(at 0 -0.5 0)
		(unlocked yes)
		(layer "F.SilkS")
		(uuid "2c9e77bc-a78b-4385-bbfd-f567e0df96c3")
		(effects
			(font
				(size 1 1)
				(thickness 0.15)
			)
		)
	)
	(property "Value" "battery_14500_1xC"
		(at 0 1 0)
		(unlocked yes)
		(layer "F.Fab")
		(uuid "4d24f783-afb0-42a0-9683-e8b59325e024")
		(effects
			(font
				(size 1 1)
				(thickness 0.15)
			)
		)
	)
	(property "Footprint" ""
		(at 0 0 0)
		(unlocked yes)
		(layer "F.Fab")
		(hide yes)
		(uuid "d16ea27e-dc1c-49c9-ada6-ac2e1779334b")
		(effects
			(font
				(size 1.27 1.27)
			)
		)
	)
	(property "Datasheet" ""
		(at 0 0 0)
		(unlocked yes)
		(layer "F.Fab")
		(hide yes)
		(uuid "8dbf79a8-9654-4c9d-95bd-9b9f3d69f372")
		(effects
			(font
				(size 1.27 1.27)
			)
		)
	)
	(property "Description" ""
		(at 0 0 0)
		(unlocked yes)
		(layer "F.Fab")
		(hide yes)
		(uuid "b2cb0d3d-2700-498c-8fe9-0284657b51ca")
		(effects
			(font
				(size 1.27 1.27)
			)
		)
	)
	(attr through_hole)
	(fp_line
		(start -28 -5)
		(end -28 5)
		(stroke
			(width 0.12)
			(type solid)
		)
		(layer "F.SilkS")
		(uuid "6c1646a3-3bff-4422-a03d-f465c02b56e4")
	)
	(fp_line
		(start -28 5)
		(end -23 5)
		(stroke
			(width 0.12)
			(type solid)
		)
		(layer "F.SilkS")
		(uuid "1945fb0b-17a2-412a-83af-191ad6d6242c")
	)
	(fp_line
		(start -23 -5)
		(end -28 -5)
		(stroke
			(width 0.12)
			(type solid)
		)
		(layer "F.SilkS")
		(uuid "2ba64216-9219-41cc-a2aa-c6a23650a674")
	)
	(fp_line
		(start 23 -5)
		(end 28 -5)
		(stroke
			(width 0.12)
			(type solid)
		)
		(layer "F.SilkS")
		(uuid "16326eb8-d1a2-4edf-b664-daae32381c58")
	)
	(fp_line
		(start 28 -5)
		(end 28 5)
		(stroke
			(width 0.12)
			(type solid)
		)
		(layer "F.SilkS")
		(uuid "bccecb28-7b0b-449a-be09-fbeba90b95c4")
	)
	(fp_line
		(start 28 5)
		(end 23 5)
		(stroke
			(width 0.12)
			(type solid)
		)
		(layer "F.SilkS")
		(uuid "0b5698ca-7812-4c3f-8475-c6f2404c0a8c")
	)
	(fp_rect
		(start -28 -8)
		(end 28 8)
		(stroke
			(width 0.12)
			(type solid)
		)
		(fill none)
		(layer "F.Fab")
		(uuid "8a0ef080-4017-4d5f-97e4-62263f658d3c")
	)
	(fp_text user "+"
		(at -23.876 3.048 0)
		(unlocked yes)
		(layer "F.SilkS")
		(uuid "9ed7b54d-1070-4ee2-89e9-21fc51538815")
		(effects
			(font
				(size 3 3)
				(thickness 0.45)
			)
		)
	)
	(pad "1" thru_hole roundrect
		(at -26 0)
		(size 3 6)
		(drill oval 1 4)
		(layers "*.Cu" "*.Mask")
		(remove_unused_layers no)
		(roundrect_rratio 0.1)
		(uuid "8eb5e770-d904-422f-814b-21543d34976a")
	)
	(pad "2" thru_hole roundrect
		(at 26 0)
		(size 3 6)
		(drill oval 1 4)
		(layers "*.Cu" "*.Mask")
		(remove_unused_layers no)
		(roundrect_rratio 0.1)
		(uuid "13ca6f98-495b-4848-a1b9-619bdbf2e008")
	)
)